Angus Withee - North Carolina Public School Demographics (2013-2023)
…
            indigenous_female = INDIAN.Female,
            hispanic_male = HISPANIC.Male,
            hispanic_female = HISPANIC.Female,
            black_male = BLACK.Male,
            black_female = BLACK.Female,
            white_male = WHITE.Male,
            white_female = WHITE.Female,
            other_male = TWO.OR.MORE.Male,
            other_female = TWO.OR.MOREFemale) |>
  mutate(total_male = aapi_male+indigenous_male+hispanic_male+black_male+white_male+other_male,
         total_female = aapi_female+indigenous_female+hispanic_female+black_female+white_female+other_female)
demographics_by_sex <- demographics_by_sex |> filter (Year>1)
demographics_by_sex

# A tibble: 1,269 × 15
# Groups:   Year [12]
   Year  aapi_male aapi_female indigenous_male indigenous_female hispanic_male
   <chr>     <int>       <int>           <int>             <int>         <int>
 1 2014        176         153              46                51          2657
 2 2014         51          51               4                 7           213
 3 2014          1           2               2                 2           154
 4 2014         29          25               8                 5            57
 5 2014         10           7               0                 3           165
 6 2014         33          44               6                 9           980
 7 2014         23          38               5                 3           135
 8 2014          5           9               0                 2           108
 9 2014          9          12               7                 3           495
10 2014          5           3               7                 5            26
# ℹ 1,259 more rows
# ℹ 9 more variables: hispanic_female <int>, black_male <int>,
#   black_female <int>, white_male <int>, white_female <int>, other_male <int>,
#   other_female <int>, total_male <int>, total_female <int>
…
